{
  "error": null,
  "data": [
    {
      "ColorName": null,
      "ID": 1,
      "Image": "archive/imageslead/20171121/thumb00_0903281954818.jpg",
      "Name": "Thời sự",
      "Pid": null,
      "Url": null,
      "IsSelect" : 1
    },
    {
      "ColorName": null,
      "ID": 7,
      "Image": "archive/imageslead/20171121/thumb00_100828174436235.jpg",
      "Name": "Người đẹp",
      "Pid": null,
      "Url": null,
      "IsSelect" : 1
    },
    {
      "ColorName": null,
      "ID": 3,
      "Image": "/archive/imageslead/2017112110/tinngan104427_337082931_88wap_650_00.jpg",
      "Name": "Giải trí",
      "Pid": null,
      "Url": null,
      "IsSelect" : 1
    },
    {
      "ColorName": null,
      "ID": 5,
      "Image": "/archive/imageslead/20171121/tinngan102245_546444227.jpg",
      "Name": "Pháp luật",
      "Pid": null,
      "Url": null,
      "IsSelect" : 1
    },
    {
      "ColorName": null,
      "ID": 1488,
      "Image": "/archive/imageslead/20171121/tinngan111908_818760249_00.jpg",
      "Name": "Thế giới",
      "Pid": null,
      "Url": null,
      "IsSelect" : 1
    },
    {
      "ColorName": null,
      "ID": 10,
      "Image": "archive/imageslead/20171121/thumb00_104503700510759.jpg",
      "Name": "Thể thao",
      "Pid": null,
      "Url": null,
      "IsSelect" : 1
    },
    {
      "ColorName": null,
      "ID": 150,
      "Image": "/archive/imageslead/20171121/tinngan105451_679992247_00.jpg",
      "Name": "Quân sự",
      "Pid": null,
      "Url": null,
      "IsSelect" : 1
    },
    {
      "ColorName": null,
      "ID": 285,
      "Image": "/archive/imageslead/20171121/tinngan105451_679992247_00.jpg",
      "Name": "Sức khoẻ",
      "Pid": null,
      "Url": null,
      "IsSelect" : 1
    },
    {
      "ColorName": null,
      "ID": 29,
      "Image": "/archive/imageslead/20171121/tinngan105451_679992247_00.jpg",
      "Name": "Chuyện lạ",
      "Pid": null,
      "Url": null,
      "IsSelect" : 1
    },
    {
      "ColorName": null,
      "ID": 135,
      "Image": "archive/imageslead/20171121/thumb00_0903281954818.jpg",
      "Name": "Video",
      "Pid": null,
      "Url": null,
      "IsSelect" : 1
    },
    {
      "ColorName": null,
      "ID": 1540,
      "Image": "/archive/imageslead/2017112110/tinngan100511_486240050_88wap_650_00.jpg",
      "Name": "Du lịch",
      "Pid": null,
      "Url": null,
      "IsSelect" : 1
    },
    {
      "ColorName": null,
      "ID": 560,
      "Image": "/archive/imageslead/2017112107/tinngan074646_884800199_00.jpg",
      "Name": "Tâm sự",
      "Pid": null,
      "Url": null,
      "IsSelect" : 1
    },
    {
      "ColorName": null,
      "ID": 149,
      "Image": "archive/imageslead/20171121/thumb00_103426480561943.jpg",
      "Name": "Cười",
      "Pid": null,
      "Url": null,
      "IsSelect" : 1
    },
    {
      "ColorName": null,
      "ID": 313,
      "Image": "/archive/imageslead/2017112110/tinngan105523_500207343wap_650_00.jpg",
      "Name": "Công nghệ",
      "Pid": null,
      "Url": null,
      "IsSelect" : 1
    },
    {
      "ColorName": null,
      "ID": 6,
      "Image": "/archive/imageslead/20171121/tinngan095236_923830842_00.jpg",
      "Name": "Kinh doanh",
      "Pid": null,
      "Url": null,
      "IsSelect" : 1
    }
  ]
}